Apr 02, 2018 2:50:22 PM com.google.inject.servlet.InternalServletModule$BackwardsCompatibleServletContextProvider get
WARNING: You are attempting to use a deprecated API (specifically, attempting to @Inject ServletContext inside an eagerly created singleton. While we allow this for backwards compatibility, be warned that this MAY have unexpected behavior if you have more than one injector (with ServletModule) running in the same JVM. Please consult the Guice documentation at http://code.google.com/p/google-guice/wiki/Servlets for more information.
Apr 02, 2018 2:50:22 PM com.sun.jersey.guice.spi.container.GuiceComponentProviderFactory register
INFO: Registering org.apache.hadoop.yarn.server.resourcemanager.webapp.JAXBContextResolver as a provider class
Apr 02, 2018 2:50:22 PM com.sun.jersey.guice.spi.container.GuiceComponentProviderFactory register
INFO: Registering org.apache.hadoop.yarn.server.resourcemanager.webapp.RMWebServices as a root resource class
Apr 02, 2018 2:50:22 PM com.sun.jersey.guice.spi.container.GuiceComponentProviderFactory register
INFO: Registering org.apache.hadoop.yarn.webapp.GenericExceptionHandler as a provider class
Apr 02, 2018 2:50:22 PM com.sun.jersey.server.impl.application.WebApplicationImpl _initiate
INFO: Initiating Jersey application, version 'Jersey: 1.9 09/02/2011 11:17 AM'
Apr 02, 2018 2:50:22 PM com.sun.jersey.guice.spi.container.GuiceComponentProviderFactory getComponentProvider
INFO: Binding org.apache.hadoop.yarn.server.resourcemanager.webapp.JAXBContextResolver to GuiceManagedComponentProvider with the scope "Singleton"
Apr 02, 2018 2:50:23 PM com.sun.jersey.guice.spi.container.GuiceComponentProviderFactory getComponentProvider
INFO: Binding org.apache.hadoop.yarn.webapp.GenericExceptionHandler to GuiceManagedComponentProvider with the scope "Singleton"
Apr 02, 2018 2:50:24 PM com.sun.jersey.guice.spi.container.GuiceComponentProviderFactory getComponentProvider
INFO: Binding org.apache.hadoop.yarn.server.resourcemanager.webapp.RMWebServices to GuiceManagedComponentProvider with the scope "Singleton"
